indexer,name,country,title
15,jerome,fr,Data Scientist
30,andreea,ro,Data Scientist
28,simone,it,Data Scientist
35,luiz,br,Jr. Data Scientist
47,fabrizio,it,Manager
18,steve,uk,CDO
99,Tous,US,Temp
00,patient0,jp,test
